8129837334
5159505
3116796205
66415708
76717
34204484
72969
103090671
3748527386
112924161
58
10426895
89
15560846
556498573
12244
5379
8151725
459500
46460453
1483634
7479921
3611
167767
1724837
49440676
558791645
363540
588950017
194169534
8433421652
98332218
3588739412
6878643263
79598
868567621
303743
11325787045
70
57580067
576143
633155937
21838
1201
123625340
5311344582
23519661
21705
3341755499
591
-10
-1905208
800704542
1563
237031419
78093
5971
-1191365099
327580
-268607136
-344876998
82197
28870485
85155
-61725362
-75180426
-781
-388207
171
4207360118
-3797
74395815
-6034135330
699833133
113426455
88025170
19968259
-6412
-8916384158
2553324452
6118022664
-45137567
-7084823332
158040
47
-1567450
-9137
-17139
9650
-75729601
5257086
711830916
-952521975
-255832967
-319661809
898848720
-6117091
6123604418
966403469
4845
8671
2284372599
8754900
78231120
1653595171
1861
9468491
800933591
365438
4427176
448879
484699332
91642351
6447466
9300026852
2718196
3179
46221
300
6482594226
8963385
5370909
443864897
4144141300
5975736
62578
196480778
271353247
77738
119849
9447
27237
5738306
7317489351
9587762086
1102
2830078908
219249880
147559453
1204945780
75
94921968
922071
5361602
741313
13609154139
682441
46920
361985104
93603147
2799594
24661810
340
112398
1443497779251
83183029
460
43946008
4339345692
60850053144
121213343
3717
207611488
896709
356505432
223753555773
3333947724
223219972864
41945696
65924775
27492
184068023
1970676
558972
2272
16909376050110
8541183230483
487252915
1980952
16588260
1429013982
3488932136592
5490800
223618923
137875
6173775
265016
339600
227128
11487912
72658
5456688
5810277018
456416
376
2272219240
1476
25406669442
24588939
111919824
8
